DM Object: mesh-qua 1 MPI processes
  type: plex
mesh-qua in 2 dimensions:
Supports:
[0] Max support size: 2
[0]: 1 ----> 5
[0]: 1 ----> 8
[0]: 2 ----> 5
[0]: 2 ----> 6
[0]: 3 ----> 6
[0]: 3 ----> 7
[0]: 4 ----> 7
[0]: 4 ----> 8
[0]: 5 ----> 0
[0]: 6 ----> 0
[0]: 7 ----> 0
[0]: 8 ----> 0
Cones:
[0] Max cone size: 4
[0]: 0 <---- 5 (0)
[0]: 0 <---- 6 (0)
[0]: 0 <---- 7 (0)
[0]: 0 <---- 8 (0)
[0]: 5 <---- 1 (0)
[0]: 5 <---- 2 (0)
[0]: 6 <---- 2 (0)
[0]: 6 <---- 3 (0)
[0]: 7 <---- 3 (0)
[0]: 7 <---- 4 (0)
[0]: 8 <---- 4 (0)
[0]: 8 <---- 1 (0)
coordinates with 1 fields
  field 0 with 2 components
Process 0:
  (   1) dim  2 offset   0 0. 0.
  (   2) dim  2 offset   2 1. 0.
  (   3) dim  2 offset   4 1. 1.
  (   4) dim  2 offset   6 0. 1.
Label 'celltype':
[0]: 1 (0)
[0]: 2 (0)
[0]: 3 (0)
[0]: 4 (0)
[0]: 0 (4)
[0]: 5 (1)
[0]: 6 (1)
[0]: 7 (1)
[0]: 8 (1)
